Final Project
…
In the above output, we can still find some noise words, such as color and religion. Since we have less that 100 words here, we can filter out those words manually. (It may be problematic under big data assumption.)

stop_words <- c("color", "religion", "national origin", "sexual orientation",
                "age", "sex", "disability", "gender identity", "responsibilities",
                "design", "analytics", "marital status", "analysis", "gender",
                "develop", "tools", "veteran status", "dental", "implement",
                "complex", "pregnancy", "processes", "race", "ancestry", "build",
                "ca", "data", "maintain", "technology", "product managers","e.g","etc",
                "experience")
dictionary <- dictionary[!(dictionary$skill %in% stop_words), ]
print(dictionary)

## # A tibble: 32 x 2
##               skill     n
##               <chr> <int>
##  1       statistics    49
##  2           python    37
##  3 machine learning    35
##  4      engineering    31
##  5 computer science    29
##  6                r    28
##  7      mathematics    22
##  8        economics    19
##  9              sql    16
## 10      data mining    15
## # ... with 22 more rows
…
